…
In this section, we will explore how the structure of data influences
visualizations. Before plotting, we need to understand our data a little
bit.

### Data Layer

To understand how the data structure relates to plotting, let’s look at
the `houseWide` data set.

``` r
print(houseWide)
```

    ## # A tibble: 190 x 7
    ##       Id  Year Ages  Style    LotArea GrLivArea SalePrice
    ##    <dbl> <dbl> <chr> <chr>      <dbl>     <dbl>     <dbl>
    ##  1     1  2004 Young OneStory    3182      1269    192000
    ##  2     2  1998 Young OneStory   10140      1680    213250
    ##  3     3  1950 Old   OneStory    9600      1067    128000
    ##  4     4  1992 Young TwoStory   10186      1923    190000
    ##  5     5  2006 Young TwoStory   15611      1919    233230
    ##  6     6  2005 Young OneStory    6955      1368    202500
    ##  7     7  1955 Old   Other       9600      1661    165500
    ##  8     8  1977 Young TwoStory   12227      2872    272000
    ##  9     9  1949 Old   TwoStory    6270      2002    145000
    ## 10    10  2009 Young TwoStory    3951      1224    164500
    ## # ... with 180 more rows
…
By now you should see that ggplot is a very flexible way of making
complex plots.

Now it’s your turn to make a plot.

First print out the contents of `houseWide2` to see its structure.

``` r
print(houseWide2)
```

    ## # A tibble: 200 x 9
    ##       Id SalePrice Foundation RoofStyle FFlrSF SFlrSF TotalBsmtSF YearBuilt
    ##    <dbl>     <dbl> <chr>      <chr>      <dbl>  <dbl>       <dbl>     <dbl>
    ##  1     1    160000 BrkTil     Gable        976    332         728      1940
    ##  2     2    215000 PConc      Gable       1065    846         777      1993
    ##  3     3     81000 PConc      Gambrel      658    526         658      1910
    ##  4     4    197000 CBlock     Hip         1040    685         539      1979
    ##  5     5    176000 CBlock     Gable       1098    880         832      1968
    ##  6     6    225000 CBlock     Gable       1122   1121         700      1990
    ##  7     7    148500 CBlock     Gable        855    601         855      1976
    ##  8     8    148500 CBlock     Gable        855    586         855      1978
    ##  9     9    200000 CBlock     Gable       1338   1296        1248      1969
    ## 10    10    189950 BrkTil     Gable        912    514         912      1918
    ## # ... with 190 more rows, and 1 more variable: Ages <chr>
…
``` r
houseTidy <- tidyr::gather(data = houseWide, key = "Type", value = 'Area', LotArea, GrLivArea)
```

Let’s have a look at the structure of our new data.

Now, both `LotArea` and `GrlivArea` are categories within the new `Type`
variable.

``` r
print(houseTidy)
```

    ## # A tibble: 380 x 7
    ##       Id  Year Ages  Style    SalePrice Type     Area
    ##    <dbl> <dbl> <chr> <chr>        <dbl> <chr>   <dbl>
    ##  1     1  2004 Young OneStory    192000 LotArea  3182
    ##  2     2  1998 Young OneStory    213250 LotArea 10140
    ##  3     3  1950 Old   OneStory    128000 LotArea  9600
    ##  4     4  1992 Young TwoStory    190000 LotArea 10186
    ##  5     5  2006 Young TwoStory    233230 LotArea 15611
    ##  6     6  2005 Young OneStory    202500 LotArea  6955
    ##  7     7  1955 Old   Other       165500 LotArea  9600
    ##  8     8  1977 Young TwoStory    272000 LotArea 12227
    ##  9     9  1949 Old   TwoStory    145000 LotArea  6270
    ## 10    10  2009 Young TwoStory    164500 LotArea  3951
    ## # ... with 370 more rows
…
``` r
houseTidy2 <- gather(data = houseWide2, key = "Floor", value = "Area", FFlrSF, SFlrSF, TotalBsmtSF)
```

After you finished the transformation, have a look at the structure of
your new data set use `print()`.

``` r
print(houseTidy2)
```

    ## # A tibble: 600 x 8
    ##       Id SalePrice Foundation RoofStyle YearBuilt Ages  Floor   Area
    ##    <dbl>     <dbl> <chr>      <chr>         <dbl> <chr> <chr>  <dbl>
    ##  1     1    160000 BrkTil     Gable          1940 Old   FFlrSF   976
    ##  2     2    215000 PConc      Gable          1993 Young FFlrSF  1065
    ##  3     3     81000 PConc      Gambrel        1910 Old   FFlrSF   658
    ##  4     4    197000 CBlock     Hip            1979 Young FFlrSF  1040
    ##  5     5    176000 CBlock     Gable          1968 Old   FFlrSF  1098
    ##  6     6    225000 CBlock     Gable          1990 Young FFlrSF  1122
    ##  7     7    148500 CBlock     Gable          1976 Old   FFlrSF   855
    ##  8     8    148500 CBlock     Gable          1978 Young FFlrSF   855
    ##  9     9    200000 CBlock     Gable          1969 Old   FFlrSF  1338
    ## 10    10    189950 BrkTil     Gable          1918 Old   FFlrSF   912
    ## # ... with 590 more rows
…
